#side phi station eta layer w/s chann
C 18 M2 3 2 1 17
C 18 M2 3 2 1 16
C 18 M2 4 2 1 17
C 18 M2 4 2 1 16
C 18 M2 5 2 1 17
C 18 M2 5 2 1 16
C 18 M3 4 2 1 17
C 18 M1 3 1 0 14
C 18 M1 3 1 1 16
C 18 M1 3 3 0 15
C 18 M1 3 3 1 17
C 18 M2 3 1 1 16
C 18 M2 3 2 1 17
C 18 M2 3 2 1 16
C 18 M2 4 1 0 13
C 18 M2 4 1 1 16
C 18 M2 4 1 0 15
C 18 M2 4 2 0 13
C 18 M2 4 2 1 17
C 18 M2 4 2 0 16
C 18 M2 4 2 1 16
C 18 M2 5 1 1 16
C 18 M2 5 2 1 17
C 18 M2 5 2 1 16
C 18 M3 4 1 0 19
C 18 M3 4 1 1 16
C 18 M3 4 2 0 19
C 18 M3 4 2 1 17

#side phi station eta layer w/s chann

#side phi station eta layer w/s chann

#side phi station eta layer w/s chann
C 18 M1 3 1 0 16
C 18 M1 3 1 1 19
C 18 M1 3 3 0 17
C 18 M1 3 3 1 20
C 18 M2 3 1 1 19
C 18 M2 3 2 1 20
C 18 M2 4 1 0 16
C 18 M2 4 1 1 19
C 18 M2 4 2 0 16
C 18 M2 4 2 1 20
C 18 M2 5 1 1 19
C 18 M2 5 2 1 20
C 18 M3 4 1 0 22
C 18 M3 4 1 0 21
C 18 M3 4 1 1 19
C 18 M3 4 2 0 22
C 18 M3 4 2 1 20
C 18 M3 4 2 1 19

#side phi station eta layer w/s chann

#side phi station eta layer w/s chann

#side phi station eta layer w/s chann
C 18 M1 3 1 1 24
C 18 M2 3 1 1 24
C 18 M2 4 1 1 24
C 18 M2 5 1 1 24
C 18 M3 4 2 1 24
C 18 M1 3 1 0 15
C 18 M1 3 1 1 24
C 18 M1 3 3 0 15
C 18 M1 3 3 1 24
C 18 M2 3 1 1 24
C 18 M2 3 2 1 24
C 18 M2 3 2 1 25
C 18 M2 3 2 1 26
C 18 M2 4 1 0 12
C 18 M2 4 1 1 24
C 18 M2 4 2 0 13
C 18 M2 4 2 1 24
C 18 M2 4 2 1 25
C 18 M2 4 2 1 26
C 18 M2 5 1 1 24
C 18 M2 5 2 1 24
C 18 M2 5 2 1 25
C 18 M2 5 2 1 26
C 18 M3 4 1 0 18
C 18 M3 4 1 1 24
C 18 M3 4 2 0 19
C 18 M3 4 2 1 24

