#SIDE  SEC  PHI  EoF  WoS  LAY  rID  CH 
A 12 0 E S 1 1 3
A 12 0 E S 3 1 3
A 12 0 E W 1 1 14
A 12 0 E W 2 1 13
A 12 0 E W 3 1 13
A 12 0 E W 4 0 13
A 12 0 E W 4 0 14
A 12 0 E W 5 0 12
A 12 0 E S 4 0 1
A 12 0 E S 4 0 2
A 12 0 E S 4 0 3
A 12 0 E S 5 0 2
A 12 0 E S 5 0 1
A 12 0 E S 4 1 1
A 12 0 E S 4 1 2
A 12 0 E S 4 1 3
A 12 0 E S 5 1 2
A 12 0 E S 5 1 1
A 12 0 E W 6 0 2
A 12 0 E W 7 0 1
A 12 0 E S 6 0 2
A 12 0 E S 7 0 1
