A 01 2 E W 3 1 0
A 01 2 E W 3 1 1
A 01 2 E W 3 1 2
A 01 2 E W 3 1 3
A 01 2 E W 3 1 4
A 01 2 E W 3 1 5
A 01 2 E W 3 1 6
A 01 2 E W 3 1 7
A 01 2 E W 3 1 8
A 01 2 E W 3 1 9
A 01 2 E W 3 1 10
A 01 2 E W 3 1 11
A 01 2 E W 3 1 12
A 01 2 E W 3 1 13
A 01 2 E W 3 1 14
A 01 2 E W 3 1 15
A 01 2 E W 3 1 16
A 01 2 E W 3 1 17
A 01 2 E W 3 1 18
A 01 2 E W 3 1 19
A 01 2 E W 3 1 20
A 01 2 E W 3 1 21
A 01 2 E W 3 1 22
A 01 2 E W 3 1 23
A 01 2 E S 3 1 0
A 01 2 E S 3 1 1
A 01 2 E S 3 1 2
A 01 2 E S 3 1 3
A 01 2 E S 3 1 4
A 01 2 E S 3 1 5
A 01 2 E S 3 1 6
A 01 2 E S 3 1 7
A 01 2 E S 3 1 8
A 01 2 E S 3 1 9
A 01 2 E S 3 1 10
A 01 2 E S 3 1 11
A 01 2 E S 3 1 12
A 01 2 E S 3 1 13
A 01 2 E S 3 1 14
A 01 2 E S 3 1 15
A 01 2 E S 3 1 16
A 01 2 E S 3 1 17
A 01 2 E S 3 1 18
A 01 2 E S 3 1 19
A 01 2 E S 3 1 20
A 01 2 E S 3 1 21
A 01 2 E S 3 1 22
A 01 2 E S 3 1 23
A 01 2 E S 3 1 24
A 01 2 E S 3 1 25
A 01 2 E S 3 1 26
A 01 2 E S 3 1 27
A 01 2 E S 3 1 28
A 01 2 E S 3 1 29
A 01 2 E S 3 1 30
A 01 2 E S 3 1 31
A 03 2 E W 1 1 0
A 03 2 E W 1 1 1
A 03 2 E W 1 1 2
A 03 2 E W 1 1 3
A 03 2 E W 1 1 4
A 03 2 E W 1 1 5
A 03 2 E W 1 1 6
A 03 2 E W 1 1 7
A 03 2 E W 1 1 8
A 03 2 E W 1 1 9
A 03 2 E W 1 1 10
A 03 2 E W 1 1 11
A 03 2 E W 1 1 12
A 03 2 E W 1 1 13
A 03 2 E W 1 1 14
A 03 2 E W 1 1 15
A 03 2 E W 1 1 16
A 03 2 E W 1 1 17
A 03 2 E W 1 1 18
A 03 2 E W 1 1 19
A 03 2 E W 1 1 20
A 03 2 E W 1 1 21
A 03 2 E W 1 1 22
A 03 2 E W 1 1 23
A 03 2 E S 1 1 0
A 03 2 E S 1 1 1
A 03 2 E S 1 1 2
A 03 2 E S 1 1 3
A 03 2 E S 1 1 4
A 03 2 E S 1 1 5
A 03 2 E S 1 1 6
A 03 2 E S 1 1 7
A 03 2 E S 1 1 8
A 03 2 E S 1 1 9
A 03 2 E S 1 1 10
A 03 2 E S 1 1 11
A 03 2 E S 1 1 12
A 03 2 E S 1 1 13
A 03 2 E S 1 1 14
A 03 2 E S 1 1 15
A 03 2 E S 1 1 16
A 03 2 E S 1 1 17
A 03 2 E S 1 1 18
A 03 2 E S 1 1 19
A 03 2 E S 1 1 20
A 03 2 E S 1 1 21
A 03 2 E S 1 1 22
A 03 2 E S 1 1 23
A 03 2 E S 1 1 24
A 03 2 E S 1 1 25
A 03 2 E S 1 1 26
A 03 2 E S 1 1 27
A 03 2 E S 1 1 28
A 03 2 E S 1 1 29
A 03 2 E S 1 1 30
A 03 2 E S 1 1 31
A 03 2 E W 2 1 0
A 03 2 E W 2 1 1
A 03 2 E W 2 1 2
A 03 2 E W 2 1 3
A 03 2 E W 2 1 4
A 03 2 E W 2 1 5
A 03 2 E W 2 1 6
A 03 2 E W 2 1 7
A 03 2 E W 2 1 8
A 03 2 E W 2 1 9
A 03 2 E W 2 1 10
A 03 2 E W 2 1 11
A 03 2 E W 2 1 12
A 03 2 E W 2 1 13
A 03 2 E W 2 1 14
A 03 2 E W 2 1 15
A 03 2 E W 2 1 16
A 03 2 E W 2 1 17
A 03 2 E W 2 1 18
A 03 2 E W 2 1 19
A 03 2 E W 2 1 20
A 03 2 E W 2 1 21
A 03 2 E W 2 1 22
A 03 2 E W 2 1 23
A 04 2 E W 3 4 109
A 04 2 E W 3 4 110
A 04 2 E W 3 4 111
A 04 2 E W 3 4 112
A 04 2 E W 3 4 113
A 04 2 E W 3 4 114
A 04 2 E W 3 4 115
A 04 2 E W 3 4 116
A 04 2 E W 3 4 117
A 04 2 E W 3 4 118
A 04 2 E W 3 4 119
A 04 2 E W 3 4 120
A 04 2 E W 3 4 121
A 04 2 E W 3 4 122
A 04 2 E W 3 4 123
A 04 2 E W 3 4 124
A 04 2 E W 3 4 125
A 04 2 E W 3 4 126
A 04 2 E W 3 4 127
A 04 2 E W 3 4 128
A 04 2 E W 3 4 129
A 04 2 E W 3 4 130
A 04 2 E W 3 4 131
A 04 2 E W 3 4 132
A 04 2 E W 3 4 133
A 04 2 E W 3 4 134
A 04 2 E W 3 4 135
A 04 2 E W 3 4 136
A 04 2 E W 3 4 137
A 04 2 E W 3 4 138
A 04 2 E W 3 4 139
A 04 2 E W 3 4 140
A 04 2 E W 3 4 141
A 04 2 E W 3 4 142
A 04 2 E W 3 4 143
A 04 2 E W 3 4 144
A 04 2 E W 3 4 145
A 04 2 E W 3 4 146
A 04 2 E W 3 4 147
A 04 2 E W 3 4 148
A 04 2 E W 3 4 149
A 04 2 E W 3 4 150
A 04 2 E W 3 4 151
A 04 2 E W 3 4 152
A 04 2 E W 3 4 153
A 04 2 E W 3 4 154
A 04 2 E W 3 4 155
A 04 2 E W 3 4 156
A 04 2 E W 3 4 157
A 04 2 E W 3 4 158
A 04 2 E W 3 4 159
A 04 2 E W 3 4 160
A 04 2 E W 3 4 161
A 04 2 E W 3 4 162
A 04 2 E W 3 4 163
A 04 2 E W 3 4 164
A 04 2 E W 3 4 165
A 04 2 E W 3 4 166
A 04 2 E W 3 4 167
A 04 2 E W 3 4 168
A 04 2 E W 3 4 169
A 04 2 E W 3 4 170
A 04 2 E W 3 4 171
A 04 2 E W 3 4 172
A 04 2 E W 3 4 173
A 04 2 E W 3 4 174
A 04 2 E W 3 4 175
A 04 2 E W 3 4 176
A 04 2 E W 3 4 177
A 04 2 E W 3 4 178
A 04 2 E W 3 4 179
A 04 2 E W 3 4 180
A 04 2 E W 3 4 181
A 04 2 E W 3 4 182
A 04 2 E W 3 4 183
A 04 2 E W 3 4 184
A 04 2 E W 3 4 185
A 04 2 E W 3 4 186
A 04 2 E W 3 4 187
A 04 2 E W 3 4 188
A 04 2 E W 3 4 189
A 04 2 E W 3 4 190
A 04 2 E W 3 4 191
A 04 2 E W 3 4 192
A 04 2 E W 3 4 193
A 04 2 E W 3 4 194
A 04 2 E W 3 4 195
A 04 2 E W 3 4 196
A 04 2 E W 3 4 197
A 04 2 E W 3 4 198
A 04 2 E W 3 4 199
A 11 0 E W 2 1 0
A 11 0 E W 2 1 1
A 11 0 E W 2 1 2
A 11 0 E W 2 1 3
A 11 0 E W 2 1 4
A 11 0 E W 2 1 5
A 11 0 E W 2 1 6
A 11 0 E W 2 1 7
A 11 0 E W 2 1 8
A 11 0 E W 2 1 9
A 11 0 E W 2 1 10
A 11 0 E W 2 1 11
A 11 0 E W 2 1 12
A 11 0 E W 2 1 13
A 11 0 E W 2 1 14
A 11 0 E W 2 1 15
A 11 0 E W 2 1 16
A 11 0 E W 2 1 17
A 11 0 E W 2 1 18
A 11 0 E W 2 1 19
A 11 0 E W 2 1 20
A 11 0 E W 2 1 21
A 11 0 E W 2 1 22
A 11 0 E W 2 1 23
A 12 3 E W 3 1 0
A 12 3 E W 3 1 1
A 12 3 E W 3 1 2
A 12 3 E W 3 1 3
A 12 3 E W 3 1 4
A 12 3 E W 3 1 5
A 12 3 E W 3 1 6
A 12 3 E W 3 1 7
A 12 3 E W 3 1 8
A 12 3 E W 3 1 9
A 12 3 E W 3 1 10
A 12 3 E W 3 1 11
A 12 3 E W 3 1 12
A 12 3 E W 3 1 13
A 12 3 E W 3 1 14
A 12 3 E W 3 1 15
A 12 3 E W 3 1 16
A 12 3 E W 3 1 17
A 12 3 E W 3 1 18
A 12 3 E W 3 1 19
A 12 3 E W 3 1 20
A 12 3 E W 3 1 21
A 12 3 E W 3 1 22
A 12 3 E W 3 1 23
A 12 3 E S 3 1 0
A 12 3 E S 3 1 1
A 12 3 E S 3 1 2
A 12 3 E S 3 1 3
A 12 3 E S 3 1 4
A 12 3 E S 3 1 5
A 12 3 E S 3 1 6
A 12 3 E S 3 1 7
A 12 3 E S 3 1 8
A 12 3 E S 3 1 9
A 12 3 E S 3 1 10
A 12 3 E S 3 1 11
A 12 3 E S 3 1 12
A 12 3 E S 3 1 13
A 12 3 E S 3 1 14
A 12 3 E S 3 1 15
A 12 3 E S 3 1 16
A 12 3 E S 3 1 17
A 12 3 E S 3 1 18
A 12 3 E S 3 1 19
A 12 3 E S 3 1 20
A 12 3 E S 3 1 21
A 12 3 E S 3 1 22
A 12 3 E S 3 1 23
A 12 3 E S 3 1 24
A 12 3 E S 3 1 25
A 12 3 E S 3 1 26
A 12 3 E S 3 1 27
A 12 3 E S 3 1 28
A 12 3 E S 3 1 29
A 12 3 E S 3 1 30
A 12 3 E S 3 1 31
A 12 3 E W 2 2 24
A 12 3 E W 2 2 25
A 12 3 E W 2 2 26
A 12 3 E W 2 2 27
A 12 3 E W 2 2 28
A 12 3 E W 2 2 29
A 12 3 E W 2 2 30
A 12 3 E W 2 2 31
A 12 3 E W 2 2 32
A 12 3 E W 2 2 33
A 12 3 E W 2 2 34
A 12 3 E W 2 2 35
A 12 3 E W 2 2 36
A 12 3 E W 2 2 37
A 12 3 E W 2 2 38
A 12 3 E W 2 2 39
A 12 3 E W 2 2 40
A 12 3 E W 2 2 41
A 12 3 E W 2 2 42
A 12 3 E W 2 2 43
A 12 3 E W 2 2 44
A 12 3 E W 2 2 45
A 12 3 E W 2 2 46
A 08 0 E W 4 1 32
A 08 0 E W 4 1 33
A 08 0 E W 4 1 34
A 08 0 E W 4 1 35
A 08 0 E W 4 1 36
A 08 0 E W 4 1 37
A 08 0 E W 4 1 38
A 08 0 E W 4 1 39
A 08 0 E W 4 1 40
A 08 0 E W 4 1 41
A 08 0 E W 4 1 42
A 08 0 E W 4 1 43
A 08 0 E W 4 1 44
A 08 0 E W 4 1 45
A 08 0 E W 4 1 46
A 08 0 E W 4 1 47
A 08 0 E W 4 1 48
A 08 0 E W 4 1 49
A 08 0 E W 4 1 50
A 08 0 E W 4 1 51
A 08 0 E W 4 1 52
A 08 0 E W 4 1 53
A 08 0 E W 4 1 54
A 08 0 E W 4 1 55
A 08 0 E W 4 1 56
A 08 0 E W 4 1 57
A 08 0 E W 4 1 58
A 08 0 E W 4 1 59
A 08 0 E W 4 1 60
A 08 0 E W 4 1 61
A 08 0 E W 4 1 62
A 08 0 E W 4 1 63
A 08 0 E S 4 1 0
A 08 0 E S 4 1 1
A 08 0 E S 4 1 2
A 08 0 E S 4 1 3
A 08 0 E S 4 1 4
A 08 0 E S 4 1 5
A 08 0 E S 4 1 6
A 08 0 E S 4 1 7
A 08 0 E S 4 1 8
A 08 0 E S 4 1 9
A 08 0 E S 4 1 10
A 08 0 E S 4 1 11
A 08 0 E S 4 1 12
A 08 0 E S 4 1 13
A 08 0 E S 4 1 14
A 08 0 E S 4 1 15
A 08 0 E S 4 1 16
A 08 0 E S 4 1 17
A 08 0 E S 4 1 18
A 08 0 E S 4 1 19
A 08 0 E S 4 1 20
A 08 0 E S 4 1 21
A 08 0 E S 4 1 22
A 08 0 E S 4 1 23
A 08 0 E S 4 1 24
A 08 0 E S 4 1 25
A 08 0 E S 4 1 26
A 08 0 E S 4 1 27
A 08 0 E S 4 1 28
A 08 0 E S 4 1 29
A 08 0 E S 4 1 30
A 08 0 E S 4 1 31
A 11 3 E W 5 1 32
A 11 3 E W 5 1 33
A 11 3 E W 5 1 34
A 11 3 E W 5 1 35
A 11 3 E W 5 1 36
A 11 3 E W 5 1 37
A 11 3 E W 5 1 38
A 11 3 E W 5 1 39
A 11 3 E W 5 1 40
A 11 3 E W 5 1 41
A 11 3 E W 5 1 42
A 11 3 E W 5 1 43
A 11 3 E W 5 1 44
A 11 3 E W 5 1 45
A 11 3 E W 5 1 46
A 11 3 E W 5 1 47
A 11 3 E W 5 1 48
A 11 3 E W 5 1 49
A 11 3 E W 5 1 50
A 11 3 E W 5 1 51
A 11 3 E W 5 1 52
A 11 3 E W 5 1 53
A 11 3 E W 5 1 54
A 11 3 E W 5 1 55
A 11 3 E W 5 1 56
A 11 3 E W 5 1 57
A 11 3 E W 5 1 58
A 11 3 E W 5 1 59
A 11 3 E W 5 1 60
A 11 3 E W 5 1 61
A 11 3 E W 5 1 62
A 11 3 E W 5 1 63
A 11 3 E W 5 1 0
A 11 3 E W 5 1 1
A 11 3 E W 5 1 2
A 11 3 E W 5 1 3
A 11 3 E W 5 1 4
A 11 3 E W 5 1 5
A 11 3 E W 5 1 6
A 11 3 E W 5 1 7
A 11 3 E W 5 1 8
A 11 3 E W 5 1 9
A 11 3 E W 5 1 10
A 11 3 E W 5 1 11
A 11 3 E W 5 1 12
A 11 3 E W 5 1 13
A 11 3 E W 5 1 14
A 11 3 E W 5 1 15
A 11 3 E W 5 1 16
A 11 3 E W 5 1 17
A 11 3 E W 5 1 18
A 11 3 E W 5 1 19
A 11 3 E W 5 1 20
A 11 3 E W 5 1 21
A 11 3 E W 5 1 22
A 11 3 E W 5 1 23
A 11 3 E W 5 1 24
A 11 3 E W 5 1 25
A 11 3 E W 5 1 26
A 11 3 E W 5 1 27
A 11 3 E W 5 1 28
A 11 3 E W 5 1 29
A 11 3 E W 5 1 30
A 11 3 E W 5 1 31
A 05 1 E W 7 0 0
A 05 1 E W 7 0 1
A 05 1 E W 7 0 2
A 05 1 E W 7 0 3
A 05 1 E W 7 0 4
A 05 1 E W 7 0 5
A 05 1 E W 7 0 6
A 05 1 E W 7 0 7
A 05 1 E W 7 0 8
A 05 1 E W 7 0 9
A 05 1 E W 7 0 10
A 05 1 E W 7 0 11
A 05 1 E W 7 0 12
A 05 1 E W 7 0 13
A 05 1 E W 7 0 14
A 05 1 E W 7 0 15
A 05 1 E W 7 0 16
A 05 1 E W 7 0 17
A 05 1 E W 7 0 18
A 05 1 E W 7 0 19
A 05 1 E W 7 0 20
A 05 1 E W 7 0 21
A 05 1 E W 7 0 22
A 05 1 E W 7 0 23
A 05 1 E W 7 0 24
A 05 1 E W 7 0 25
A 05 1 E W 7 0 26
A 05 1 E W 7 0 27
A 05 1 E W 7 0 28
A 05 1 E W 7 0 29
A 05 1 E W 7 0 30
A 05 1 E S 7 0 0
A 05 1 E S 7 0 1
A 05 1 E S 7 0 2
A 05 1 E S 7 0 3
A 05 1 E S 7 0 4
A 05 1 E S 7 0 5
A 05 1 E S 7 0 6
A 05 1 E S 7 0 7
A 05 1 E S 7 0 8
A 05 1 E S 7 0 9
A 05 1 E S 7 0 10
A 05 1 E S 7 0 11
A 05 1 E S 7 0 12
A 05 1 E S 7 0 13
A 05 1 E S 7 0 14
A 05 1 E S 7 0 15
A 05 1 E S 7 0 16
A 05 1 E S 7 0 17
A 05 1 E S 7 0 18
A 05 1 E S 7 0 19
A 05 1 E S 7 0 20
A 05 1 E S 7 0 21
A 05 1 E S 7 0 22
A 05 1 E S 7 0 23
A 05 1 E S 7 0 24
A 05 1 E S 7 0 25
A 05 1 E S 7 0 26
A 05 1 E S 7 0 27
A 05 1 E S 7 0 28
A 05 1 E S 7 0 29
A 05 1 E S 7 0 30
A 05 1 E S 7 0 31
A 09 3 E W 7 0 0
A 09 3 E W 7 0 1
A 09 3 E W 7 0 2
A 09 3 E W 7 0 3
A 09 3 E W 7 0 4
A 09 3 E W 7 0 5
A 09 3 E W 7 0 6
A 09 3 E W 7 0 7
A 09 3 E W 7 0 8
A 09 3 E W 7 0 9
A 09 3 E W 7 0 10
A 09 3 E W 7 0 11
A 09 3 E W 7 0 12
A 09 3 E W 7 0 13
A 09 3 E W 7 0 14
A 09 3 E W 7 0 15
A 09 3 E W 7 0 16
A 09 3 E W 7 0 17
A 09 3 E W 7 0 18
A 09 3 E W 7 0 19
A 09 3 E W 7 0 20
A 09 3 E W 7 0 21
A 09 3 E W 7 0 22
A 09 3 E W 7 0 23
A 09 3 E W 7 0 24
A 09 3 E W 7 0 25
A 09 3 E W 7 0 26
A 09 3 E W 7 0 27
A 09 3 E W 7 0 28
A 09 3 E W 7 0 29
A 09 3 E W 7 0 30
A 09 3 E S 7 0 0
A 09 3 E S 7 0 1
A 09 3 E S 7 0 2
A 09 3 E S 7 0 3
A 09 3 E S 7 0 4
A 09 3 E S 7 0 5
A 09 3 E S 7 0 6
A 09 3 E S 7 0 7
A 09 3 E S 7 0 8
A 09 3 E S 7 0 9
A 09 3 E S 7 0 10
A 09 3 E S 7 0 11
A 09 3 E S 7 0 12
A 09 3 E S 7 0 13
A 09 3 E S 7 0 14
A 09 3 E S 7 0 15
A 09 3 E S 7 0 16
A 09 3 E S 7 0 17
A 09 3 E S 7 0 18
A 09 3 E S 7 0 19
A 09 3 E S 7 0 20
A 09 3 E S 7 0 21
A 09 3 E S 7 0 22
A 09 3 E S 7 0 23
A 09 3 E S 7 0 24
A 09 3 E S 7 0 25
A 09 3 E S 7 0 26
A 09 3 E S 7 0 27
A 09 3 E S 7 0 28
A 09 3 E S 7 0 29
A 09 3 E S 7 0 30
A 09 3 E S 7 0 31
A 11 1 E W 7 0 0
A 11 1 E W 7 0 1
A 11 1 E W 7 0 2
A 11 1 E W 7 0 3
A 11 1 E W 7 0 4
A 11 1 E W 7 0 5
A 11 1 E W 7 0 6
A 11 1 E W 7 0 7
A 11 1 E W 7 0 8
A 11 1 E W 7 0 9
A 11 1 E W 7 0 10
A 11 1 E W 7 0 11
A 11 1 E W 7 0 12
A 11 1 E W 7 0 13
A 11 1 E W 7 0 14
A 11 1 E W 7 0 15
A 11 1 E W 7 0 16
A 11 1 E W 7 0 17
A 11 1 E W 7 0 18
A 11 1 E W 7 0 19
A 11 1 E W 7 0 20
A 11 1 E W 7 0 21
A 11 1 E W 7 0 22
A 11 1 E W 7 0 23
A 11 1 E W 7 0 24
A 11 1 E W 7 0 25
A 11 1 E W 7 0 26
A 11 1 E W 7 0 27
A 11 1 E W 7 0 28
A 11 1 E W 7 0 29
A 11 1 E W 7 0 30
A 11 1 E S 7 0 0
A 11 1 E S 7 0 1
A 11 1 E S 7 0 2
A 11 1 E S 7 0 3
A 11 1 E S 7 0 4
A 11 1 E S 7 0 5
A 11 1 E S 7 0 6
A 11 1 E S 7 0 7
A 11 1 E S 7 0 8
A 11 1 E S 7 0 9
A 11 1 E S 7 0 10
A 11 1 E S 7 0 11
A 11 1 E S 7 0 12
A 11 1 E S 7 0 13
A 11 1 E S 7 0 14
A 11 1 E S 7 0 15
A 11 1 E S 7 0 16
A 11 1 E S 7 0 17
A 11 1 E S 7 0 18
A 11 1 E S 7 0 19
A 11 1 E S 7 0 20
A 11 1 E S 7 0 21
A 11 1 E S 7 0 22
A 11 1 E S 7 0 23
A 11 1 E S 7 0 24
A 11 1 E S 7 0 25
A 11 1 E S 7 0 26
A 11 1 E S 7 0 27
A 11 1 E S 7 0 28
A 11 1 E S 7 0 29
A 11 1 E S 7 0 30
A 11 1 E S 7 0 31
C 02 2 E W 1 1 0
C 02 2 E W 1 1 1
C 02 2 E W 1 1 2
C 02 2 E W 1 1 3
C 02 2 E W 1 1 4
C 02 2 E W 1 1 5
C 02 2 E W 1 1 6
C 02 2 E W 1 1 7
C 02 2 E W 1 1 8
C 02 2 E W 1 1 9
C 02 2 E W 1 1 10
C 02 2 E W 1 1 11
C 02 2 E W 1 1 12
C 02 2 E W 1 1 13
C 02 2 E W 1 1 14
C 02 2 E W 1 1 15
C 02 2 E W 1 1 16
C 02 2 E W 1 1 17
C 02 2 E W 1 1 18
C 02 2 E W 1 1 19
C 02 2 E W 1 1 20
C 02 2 E W 1 1 21
C 02 2 E W 1 1 22
C 02 2 E W 1 1 23
C 02 2 E S 1 1 0
C 02 2 E S 1 1 1
C 02 2 E S 1 1 2
C 02 2 E S 1 1 3
C 02 2 E S 1 1 4
C 02 2 E S 1 1 5
C 02 2 E S 1 1 6
C 02 2 E S 1 1 7
C 02 2 E S 1 1 8
C 02 2 E S 1 1 9
C 02 2 E S 1 1 10
C 02 2 E S 1 1 11
C 02 2 E S 1 1 12
C 02 2 E S 1 1 13
C 02 2 E S 1 1 14
C 02 2 E S 1 1 15
C 02 2 E S 1 1 16
C 02 2 E S 1 1 17
C 02 2 E S 1 1 18
C 02 2 E S 1 1 19
C 02 2 E S 1 1 20
C 02 2 E S 1 1 21
C 02 2 E S 1 1 22
C 02 2 E S 1 1 23
C 02 2 E S 1 1 24
C 02 2 E S 1 1 25
C 02 2 E S 1 1 26
C 02 2 E S 1 1 27
C 02 2 E S 1 1 28
C 02 2 E S 1 1 29
C 02 2 E S 1 1 30
C 02 2 E S 1 1 31
C 05 0 E W 3 1 0
C 05 0 E W 3 1 1
C 05 0 E W 3 1 2
C 05 0 E W 3 1 3
C 05 0 E W 3 1 4
C 05 0 E W 3 1 5
C 05 0 E W 3 1 6
C 05 0 E W 3 1 7
C 05 0 E W 3 1 8
C 05 0 E W 3 1 9
C 05 0 E W 3 1 10
C 05 0 E W 3 1 11
C 05 0 E W 3 1 12
C 05 0 E W 3 1 13
C 05 0 E W 3 1 14
C 05 0 E W 3 1 15
C 05 0 E W 3 1 16
C 05 0 E W 3 1 17
C 05 0 E W 3 1 18
C 05 0 E W 3 1 19
C 05 0 E W 3 1 20
C 05 0 E W 3 1 21
C 05 0 E W 3 1 22
C 05 0 E W 3 1 23
C 05 0 E S 3 1 0
C 05 0 E S 3 1 1
C 05 0 E S 3 1 2
C 05 0 E S 3 1 3
C 05 0 E S 3 1 4
C 05 0 E S 3 1 5
C 05 0 E S 3 1 6
C 05 0 E S 3 1 7
C 05 0 E S 3 1 8
C 05 0 E S 3 1 9
C 05 0 E S 3 1 10
C 05 0 E S 3 1 11
C 05 0 E S 3 1 12
C 05 0 E S 3 1 13
C 05 0 E S 3 1 14
C 05 0 E S 3 1 15
C 05 0 E S 3 1 16
C 05 0 E S 3 1 17
C 05 0 E S 3 1 18
C 05 0 E S 3 1 19
C 05 0 E S 3 1 20
C 05 0 E S 3 1 21
C 05 0 E S 3 1 22
C 05 0 E S 3 1 23
C 05 0 E S 3 1 24
C 05 0 E S 3 1 25
C 05 0 E S 3 1 26
C 05 0 E S 3 1 27
C 05 0 E S 3 1 28
C 05 0 E S 3 1 29
C 05 0 E S 3 1 30
C 05 0 E S 3 1 31
C 06 2 E W 2 2 24
C 06 2 E W 2 2 25
C 06 2 E W 2 2 26
C 06 2 E W 2 2 27
C 06 2 E W 2 2 28
C 06 2 E W 2 2 29
C 06 2 E W 2 2 30
C 06 2 E W 2 2 31
C 06 2 E W 2 2 32
C 06 2 E W 2 2 33
C 06 2 E W 2 2 34
C 06 2 E W 2 2 35
C 06 2 E W 2 2 36
C 06 2 E W 2 2 37
C 06 2 E W 2 2 38
C 06 2 E W 2 2 39
C 06 2 E W 2 2 40
C 06 2 E W 2 2 41
C 06 2 E W 2 2 42
C 06 2 E W 2 2 43
C 06 2 E W 2 2 44
C 06 2 E W 2 2 45
C 06 2 E W 2 2 46
C 09 3 E W 3 1 0
C 09 3 E W 3 1 1
C 09 3 E W 3 1 2
C 09 3 E W 3 1 3
C 09 3 E W 3 1 4
C 09 3 E W 3 1 5
C 09 3 E W 3 1 6
C 09 3 E W 3 1 7
C 09 3 E W 3 1 8
C 09 3 E W 3 1 9
C 09 3 E W 3 1 10
C 09 3 E W 3 1 11
C 09 3 E W 3 1 12
C 09 3 E W 3 1 13
C 09 3 E W 3 1 14
C 09 3 E W 3 1 15
C 09 3 E W 3 1 16
C 09 3 E W 3 1 17
C 09 3 E W 3 1 18
C 09 3 E W 3 1 19
C 09 3 E W 3 1 20
C 09 3 E W 3 1 21
C 09 3 E W 3 1 22
C 09 3 E W 3 1 23
C 09 3 E S 3 1 0
C 09 3 E S 3 1 1
C 09 3 E S 3 1 2
C 09 3 E S 3 1 3
C 09 3 E S 3 1 4
C 09 3 E S 3 1 5
C 09 3 E S 3 1 6
C 09 3 E S 3 1 7
C 09 3 E S 3 1 8
C 09 3 E S 3 1 9
C 09 3 E S 3 1 10
C 09 3 E S 3 1 11
C 09 3 E S 3 1 12
C 09 3 E S 3 1 13
C 09 3 E S 3 1 14
C 09 3 E S 3 1 15
C 09 3 E S 3 1 16
C 09 3 E S 3 1 17
C 09 3 E S 3 1 18
C 09 3 E S 3 1 19
C 09 3 E S 3 1 20
C 09 3 E S 3 1 21
C 09 3 E S 3 1 22
C 09 3 E S 3 1 23
C 09 3 E S 3 1 24
C 09 3 E S 3 1 25
C 09 3 E S 3 1 26
C 09 3 E S 3 1 27
C 09 3 E S 3 1 28
C 09 3 E S 3 1 29
C 09 3 E S 3 1 30
C 09 3 E S 3 1 31
C 10 0 E W 3 1 0
C 10 0 E W 3 1 1
C 10 0 E W 3 1 2
C 10 0 E W 3 1 3
C 10 0 E W 3 1 4
C 10 0 E W 3 1 5
C 10 0 E W 3 1 6
C 10 0 E W 3 1 7
C 10 0 E W 3 1 8
C 10 0 E W 3 1 9
C 10 0 E W 3 1 10
C 10 0 E W 3 1 11
C 10 0 E W 3 1 12
C 10 0 E W 3 1 13
C 10 0 E W 3 1 14
C 10 0 E W 3 1 15
C 10 0 E W 3 1 16
C 10 0 E W 3 1 17
C 10 0 E W 3 1 18
C 10 0 E W 3 1 19
C 10 0 E W 3 1 20
C 10 0 E W 3 1 21
C 10 0 E W 3 1 22
C 10 0 E W 3 1 23
C 10 0 E S 3 1 0
C 10 0 E S 3 1 1
C 10 0 E S 3 1 2
C 10 0 E S 3 1 3
C 10 0 E S 3 1 4
C 10 0 E S 3 1 5
C 10 0 E S 3 1 6
C 10 0 E S 3 1 7
C 10 0 E S 3 1 8
C 10 0 E S 3 1 9
C 10 0 E S 3 1 10
C 10 0 E S 3 1 11
C 10 0 E S 3 1 12
C 10 0 E S 3 1 13
C 10 0 E S 3 1 14
C 10 0 E S 3 1 15
C 10 0 E S 3 1 16
C 10 0 E S 3 1 17
C 10 0 E S 3 1 18
C 10 0 E S 3 1 19
C 10 0 E S 3 1 20
C 10 0 E S 3 1 21
C 10 0 E S 3 1 22
C 10 0 E S 3 1 23
C 10 0 E S 3 1 24
C 10 0 E S 3 1 25
C 10 0 E S 3 1 26
C 10 0 E S 3 1 27
C 10 0 E S 3 1 28
C 10 0 E S 3 1 29
C 10 0 E S 3 1 30
C 10 0 E S 3 1 31
C 11 1 E W 1 4 109
C 11 1 E W 1 4 110
C 11 1 E W 1 4 111
C 11 1 E W 1 4 112
C 11 1 E W 1 4 113
C 11 1 E W 1 4 114
C 11 1 E W 1 4 115
C 11 1 E W 1 4 116
C 11 1 E W 1 4 117
C 11 1 E W 1 4 118
C 11 1 E W 1 4 119
C 11 1 E W 1 4 120
C 11 1 E W 1 4 121
C 11 1 E W 1 4 122
C 11 1 E W 1 4 123
C 11 1 E W 1 4 124
C 11 1 E W 1 4 125
C 11 1 E W 1 4 126
C 11 1 E W 1 4 127
C 11 1 E W 1 4 128
C 11 1 E W 1 4 129
C 11 1 E W 1 4 130
C 11 1 E W 1 4 131
C 11 1 E W 1 4 132
C 11 1 E W 1 4 133
C 11 1 E W 1 4 134
C 11 1 E W 1 4 135
C 11 1 E W 1 4 136
C 11 1 E W 1 4 137
C 11 1 E W 1 4 138
C 11 1 E W 1 4 139
C 11 1 E W 1 4 140
C 11 1 E W 1 4 141
C 11 1 E W 1 4 142
C 11 1 E W 1 4 143
C 11 1 E W 1 4 144
C 11 1 E W 1 4 145
C 11 1 E W 1 4 146
C 11 1 E W 1 4 147
C 11 1 E W 1 4 148
C 11 1 E W 1 4 149
C 11 1 E W 1 4 150
C 11 1 E W 1 4 151
C 11 1 E W 1 4 152
C 11 1 E W 1 4 153
C 11 1 E W 1 4 154
C 11 1 E W 1 4 155
C 11 1 E W 1 4 156
C 11 1 E W 1 4 157
C 11 1 E W 1 4 158
C 11 1 E W 1 4 159
C 11 1 E W 1 4 160
C 11 1 E W 1 4 161
C 11 1 E W 1 4 162
C 11 1 E W 1 4 163
C 11 1 E W 1 4 164
C 11 1 E W 1 4 165
C 11 1 E W 1 4 166
C 11 1 E W 1 4 167
C 11 1 E W 1 4 168
C 11 1 E W 1 4 169
C 11 1 E W 1 4 170
C 11 1 E W 1 4 171
C 11 1 E W 1 4 172
C 11 1 E W 1 4 173
C 11 1 E W 1 4 174
C 11 1 E W 1 4 175
C 11 1 E W 1 4 176
C 11 1 E W 1 4 177
C 11 1 E W 1 4 178
C 11 1 E W 1 4 179
C 11 1 E W 1 4 180
C 11 1 E W 1 4 181
C 11 1 E W 1 4 182
C 11 1 E W 1 4 183
C 11 1 E W 1 4 184
C 11 1 E W 1 4 185
C 11 1 E W 1 4 186
C 11 1 E W 1 4 187
C 11 1 E W 1 4 188
C 11 1 E W 1 4 189
C 11 1 E W 1 4 190
C 11 1 E W 1 4 191
C 11 1 E W 1 4 192
C 11 1 E W 1 4 193
C 11 1 E W 1 4 194
C 11 1 E W 1 4 195
C 11 1 E W 1 4 196
C 11 1 E W 1 4 197
C 11 1 E W 1 4 198
C 11 1 E W 1 4 199
C 11 1 E S 1 4 0
C 11 1 E S 1 4 1
C 11 1 E S 1 4 2
C 11 1 E S 1 4 3
C 11 1 E S 1 4 4
C 11 1 E S 1 4 5
C 11 1 E S 1 4 6
C 11 1 E S 1 4 7
C 11 1 E S 1 4 8
C 11 1 E S 1 4 9
C 11 1 E S 1 4 10
C 11 1 E S 1 4 11
C 11 1 E S 1 4 12
C 11 1 E S 1 4 13
C 11 1 E S 1 4 14
C 11 1 E S 1 4 15
C 11 1 E S 1 4 16
C 11 1 E S 1 4 17
C 11 1 E S 1 4 18
C 11 1 E S 1 4 19
C 11 1 E S 1 4 20
C 11 1 E S 1 4 21
C 11 1 E S 1 4 22
C 11 1 E S 1 4 23
C 11 1 E S 1 4 24
C 11 1 E S 1 4 25
C 11 1 E S 1 4 26
C 11 1 E S 1 4 27
C 11 1 E S 1 4 28
C 11 1 E S 1 4 29
C 11 1 E S 1 4 30
C 11 1 E S 1 4 31
C 03 2 F W 4 0 0
C 03 2 F W 4 0 1
C 03 2 F W 4 0 2
C 03 2 F W 4 0 3
C 03 2 F W 4 0 4
C 03 2 F W 4 0 5
C 03 2 F W 4 0 6
C 03 2 F W 4 0 7
C 03 2 F W 4 0 8
C 03 2 F W 4 0 9
C 03 2 F W 4 0 10
C 03 2 F W 4 0 11
C 03 2 F W 4 0 12
C 03 2 F W 4 0 13
C 03 2 F W 4 0 14
C 03 2 F W 4 0 15
C 03 2 F W 4 0 16
C 03 2 F W 4 0 17
C 03 2 F W 4 0 18
C 03 2 F W 4 0 19
C 03 2 F W 4 0 20
C 03 2 F W 4 0 21
C 03 2 F W 4 0 22
C 03 2 F W 4 0 23
C 03 2 F W 4 0 24
C 03 2 F W 4 0 25
C 03 2 F W 4 0 26
C 03 2 F W 4 0 27
C 03 2 F W 4 0 28
C 03 2 F W 4 0 29
C 03 2 F W 4 0 30
C 03 2 F W 4 0 31
C 03 2 F W 4 0 32
C 03 2 F W 4 0 33
C 03 2 F W 4 0 34
C 03 2 F W 4 0 35
C 03 2 F W 4 0 36
C 03 2 F W 4 0 37
C 03 2 F W 4 0 38
C 03 2 F W 4 0 39
C 03 2 F W 4 0 40
C 03 2 F W 4 0 41
C 03 2 F W 4 0 42
C 03 2 F W 4 0 43
C 03 2 F W 4 0 44
C 03 2 F W 4 0 45
C 03 2 F W 4 0 46
C 03 2 F W 4 0 47
C 03 2 F W 4 0 48
C 03 2 F W 4 0 49
C 03 2 F W 4 0 50
C 03 2 F W 4 0 51
C 03 2 F W 4 0 52
C 03 2 F W 4 0 53
C 03 2 F W 4 0 54
C 03 2 F W 4 0 55
C 03 2 F W 4 0 56
C 03 2 F W 4 0 57
C 03 2 F W 4 0 58
C 03 2 F W 4 0 59
C 03 2 F W 4 0 60
C 03 2 F W 4 0 61
C 03 2 F W 4 0 62
C 03 2 F W 4 0 63
C 03 2 F W 4 0 64
C 03 2 F W 4 0 65
C 03 2 F W 4 0 66
C 03 2 F W 4 0 67
C 03 2 F W 4 0 68
C 03 2 F W 4 0 69
C 03 2 F W 4 0 70
C 03 2 F W 4 0 71
C 03 2 F W 4 0 72
C 03 2 F W 4 0 73
C 03 2 F W 4 0 74
C 03 2 F W 4 0 75
C 03 2 F W 4 0 76
C 03 2 F W 4 0 77
C 03 2 F W 4 0 78
C 03 2 F W 4 0 79
C 03 2 F W 4 0 80
C 03 2 F W 4 0 81
C 03 2 F W 4 0 82
C 03 2 F W 4 0 83
C 03 2 F W 4 0 84
C 03 2 F W 4 0 85
C 03 2 F W 4 0 86
C 03 2 F W 4 0 87
C 03 2 F W 4 0 88
C 03 2 F W 4 0 89
C 03 2 F W 4 0 90
C 03 2 F W 4 0 91
C 03 2 F W 4 0 92
C 03 2 F W 4 0 93
C 03 2 F W 4 0 94
C 03 2 F W 4 0 95
C 03 2 F W 4 0 96
C 03 2 F W 4 0 97
C 03 2 F W 4 0 98
C 03 2 F W 4 0 99
C 03 2 F W 4 0 100
C 03 2 F W 4 0 101
C 03 2 F W 4 0 102
C 03 2 F W 4 0 103
C 03 2 F W 4 0 104
C 03 2 F W 4 0 105
C 03 2 F W 4 0 106
C 03 2 F W 4 0 107
C 03 2 F W 4 0 108
C 03 2 F W 4 0 109
C 03 2 F W 4 0 110
C 03 2 F W 4 0 111
C 03 2 F W 4 0 112
C 03 2 F W 4 0 113
C 03 2 F W 4 0 114
C 03 2 F W 4 0 115
C 03 2 F W 4 0 116
C 03 2 F W 4 0 117
C 03 2 F W 4 0 118
C 03 2 F W 4 0 119
C 03 2 F W 4 0 120
C 03 2 F W 4 0 121
C 03 2 F W 4 0 122
C 03 2 F W 4 0 123
C 03 2 F W 4 0 124
C 03 2 F S 4 0 0
C 03 2 F S 4 0 1
C 03 2 F S 4 0 2
C 03 2 F S 4 0 3
C 03 2 F S 4 0 4
C 03 2 F S 4 0 5
C 03 2 F S 4 0 6
C 03 2 F S 4 0 7
C 03 2 F S 4 0 8
C 03 2 F S 4 0 9
C 03 2 F S 4 0 10
C 03 2 F S 4 0 11
C 03 2 F S 4 0 12
C 03 2 F S 4 0 13
C 03 2 F S 4 0 14
C 03 2 F S 4 0 15
C 03 2 F S 4 0 16
C 03 2 F S 4 0 17
C 03 2 F S 4 0 18
C 03 2 F S 4 0 19
C 03 2 F S 4 0 20
C 03 2 F S 4 0 21
C 03 2 F S 4 0 22
C 03 2 F S 4 0 23
C 03 2 F S 4 0 24
C 03 2 F S 4 0 25
C 03 2 F S 4 0 26
C 03 2 F S 4 0 27
C 03 2 F S 4 0 28
C 03 2 F S 4 0 29
C 03 2 F S 4 0 30
C 03 2 F S 4 0 31
C 03 2 F W 6 0 0
C 03 2 F W 6 0 1
C 03 2 F W 6 0 2
C 03 2 F W 6 0 3
C 03 2 F W 6 0 4
C 03 2 F W 6 0 5
C 03 2 F W 6 0 6
C 03 2 F W 6 0 7
C 03 2 F W 6 0 8
C 03 2 F W 6 0 9
C 03 2 F W 6 0 10
C 03 2 F W 6 0 11
C 03 2 F W 6 0 12
C 03 2 F W 6 0 13
C 03 2 F W 6 0 14
C 03 2 F W 6 0 15
C 03 2 F W 6 0 16
C 03 2 F W 6 0 17
C 03 2 F W 6 0 18
C 03 2 F W 6 0 19
C 03 2 F W 6 0 20
C 03 2 F W 6 0 21
C 03 2 F W 6 0 22
C 03 2 F W 6 0 23
C 03 2 F W 6 0 24
C 03 2 F W 6 0 25
C 03 2 F W 6 0 26
C 03 2 F W 6 0 27
C 03 2 F W 6 0 28
C 03 2 F W 6 0 29
C 03 2 F W 6 0 30
C 03 2 F W 6 0 31
C 03 2 F W 6 0 32
C 03 2 F W 6 0 33
C 03 2 F W 6 0 34
C 03 2 F W 6 0 35
C 03 2 F W 6 0 36
C 03 2 F W 6 0 37
C 03 2 F W 6 0 38
C 03 2 F W 6 0 39
C 03 2 F W 6 0 40
C 03 2 F W 6 0 41
C 03 2 F W 6 0 42
C 03 2 F W 6 0 43
C 03 2 F W 6 0 44
C 03 2 F W 6 0 45
C 03 2 F W 6 0 46
C 03 2 F W 6 0 47
C 03 2 F W 6 0 48
C 03 2 F W 6 0 49
C 03 2 F W 6 0 50
C 03 2 F W 6 0 51
C 03 2 F W 6 0 52
C 03 2 F W 6 0 53
C 03 2 F W 6 0 54
C 03 2 F W 6 0 55
C 03 2 F W 6 0 56
C 03 2 F W 6 0 57
C 03 2 F W 6 0 58
C 03 2 F W 6 0 59
C 03 2 F W 6 0 60
C 03 2 F W 6 0 61
C 03 2 F W 6 0 62
C 03 2 F W 6 0 63
C 03 2 F W 6 0 64
C 03 2 F W 6 0 65
C 03 2 F W 6 0 66
C 03 2 F W 6 0 67
C 03 2 F W 6 0 68
C 03 2 F W 6 0 69
C 03 2 F W 6 0 70
C 03 2 F W 6 0 71
C 03 2 F W 6 0 72
C 03 2 F W 6 0 73
C 03 2 F W 6 0 74
C 03 2 F W 6 0 75
C 03 2 F W 6 0 76
C 03 2 F W 6 0 77
C 03 2 F W 6 0 78
C 03 2 F W 6 0 79
C 03 2 F W 6 0 80
C 03 2 F W 6 0 81
C 03 2 F W 6 0 82
C 03 2 F W 6 0 83
C 03 2 F W 6 0 84
C 03 2 F W 6 0 85
C 03 2 F W 6 0 86
C 03 2 F W 6 0 87
C 03 2 F W 6 0 88
C 03 2 F W 6 0 89
C 03 2 F W 6 0 90
C 03 2 F W 6 0 91
C 03 2 F W 6 0 92
C 03 2 F W 6 0 93
C 03 2 F W 6 0 94
C 03 2 F W 6 0 95
C 03 2 F W 6 0 96
C 03 2 F W 6 0 97
C 03 2 F W 6 0 98
C 03 2 F W 6 0 99
C 03 2 F W 6 0 100
C 03 2 F W 6 0 101
C 03 2 F W 6 0 102
C 03 2 F W 6 0 103
C 03 2 F W 6 0 104
C 03 2 F W 6 0 105
C 03 2 F W 6 0 106
C 03 2 F W 6 0 107
C 03 2 F W 6 0 108
C 03 2 F W 6 0 109
C 03 2 F W 6 0 110
C 03 2 F W 6 0 111
C 03 2 F W 6 0 112
C 03 2 F W 6 0 113
C 03 2 F W 6 0 114
C 03 2 F W 6 0 115
C 03 2 F W 6 0 116
C 03 2 F W 6 0 117
C 03 2 F W 6 0 118
C 03 2 F W 6 0 119
C 03 2 F W 6 0 120
C 03 2 F W 6 0 121
C 03 2 F S 6 0 0
C 03 2 F S 6 0 1
C 03 2 F S 6 0 2
C 03 2 F S 6 0 3
C 03 2 F S 6 0 4
C 03 2 F S 6 0 5
C 03 2 F S 6 0 6
C 03 2 F S 6 0 7
C 03 2 F S 6 0 8
C 03 2 F S 6 0 9
C 03 2 F S 6 0 10
C 03 2 F S 6 0 11
C 03 2 F S 6 0 12
C 03 2 F S 6 0 13
C 03 2 F S 6 0 14
C 03 2 F S 6 0 15
C 03 2 F S 6 0 16
C 03 2 F S 6 0 17
C 03 2 F S 6 0 18
C 03 2 F S 6 0 19
C 03 2 F S 6 0 20
C 03 2 F S 6 0 21
C 03 2 F S 6 0 22
C 03 2 F S 6 0 23
C 03 2 F S 6 0 24
C 03 2 F S 6 0 25
C 03 2 F S 6 0 26
C 03 2 F S 6 0 27
C 03 2 F S 6 0 28
C 03 2 F S 6 0 29
C 03 2 F S 6 0 30
C 03 2 F S 6 0 31
C 05 0 E W 6 0 0
C 05 0 E W 6 0 1
C 05 0 E W 6 0 2
C 05 0 E W 6 0 3
C 05 0 E W 6 0 4
C 05 0 E W 6 0 5
C 05 0 E W 6 0 6
C 05 0 E W 6 0 7
C 05 0 E W 6 0 8
C 05 0 E W 6 0 9
C 05 0 E W 6 0 10
C 05 0 E W 6 0 11
C 05 0 E W 6 0 12
C 05 0 E W 6 0 13
C 05 0 E W 6 0 14
C 05 0 E W 6 0 15
C 05 0 E W 6 0 16
C 05 0 E W 6 0 17
C 05 0 E W 6 0 18
C 05 0 E W 6 0 19
C 05 0 E W 6 0 20
C 05 0 E W 6 0 21
C 05 0 E W 6 0 22
C 05 0 E W 6 0 23
C 05 0 E W 6 0 24
C 05 0 E W 6 0 25
C 05 0 E W 6 0 26
C 05 0 E W 6 0 27
C 05 0 E W 6 0 28
C 05 0 E W 6 0 29
C 05 0 E W 6 0 30
C 05 0 E S 6 0 0
C 05 0 E S 6 0 1
C 05 0 E S 6 0 2
C 05 0 E S 6 0 3
C 05 0 E S 6 0 4
C 05 0 E S 6 0 5
C 05 0 E S 6 0 6
C 05 0 E S 6 0 7
C 05 0 E S 6 0 8
C 05 0 E S 6 0 9
C 05 0 E S 6 0 10
C 05 0 E S 6 0 11
C 05 0 E S 6 0 12
C 05 0 E S 6 0 13
C 05 0 E S 6 0 14
C 05 0 E S 6 0 15
C 05 0 E S 6 0 16
C 05 0 E S 6 0 17
C 05 0 E S 6 0 18
C 05 0 E S 6 0 19
C 05 0 E S 6 0 20
C 05 0 E S 6 0 21
C 05 0 E S 6 0 22
C 05 0 E S 6 0 23
C 05 0 E S 6 0 24
C 05 0 E S 6 0 25
C 05 0 E S 6 0 26
C 05 0 E S 6 0 27
C 05 0 E S 6 0 28
C 05 0 E S 6 0 29
C 05 0 E S 6 0 30
C 05 0 E S 6 0 31
C 05 0 E W 7 0 0
C 05 0 E W 7 0 1
C 05 0 E W 7 0 2
C 05 0 E W 7 0 3
C 05 0 E W 7 0 4
C 05 0 E W 7 0 5
C 05 0 E W 7 0 6
C 05 0 E W 7 0 7
C 05 0 E W 7 0 8
C 05 0 E W 7 0 9
C 05 0 E W 7 0 10
C 05 0 E W 7 0 11
C 05 0 E W 7 0 12
C 05 0 E W 7 0 13
C 05 0 E W 7 0 14
C 05 0 E W 7 0 15
C 05 0 E W 7 0 16
C 05 0 E W 7 0 17
C 05 0 E W 7 0 18
C 05 0 E W 7 0 19
C 05 0 E W 7 0 20
C 05 0 E W 7 0 21
C 05 0 E W 7 0 22
C 05 0 E W 7 0 23
C 05 0 E W 7 0 24
C 05 0 E W 7 0 25
C 05 0 E W 7 0 26
C 05 0 E W 7 0 27
C 05 0 E W 7 0 28
C 05 0 E W 7 0 29
C 05 0 E W 7 0 30
C 05 0 E S 7 0 0
C 05 0 E S 7 0 1
C 05 0 E S 7 0 2
C 05 0 E S 7 0 3
C 05 0 E S 7 0 4
C 05 0 E S 7 0 5
C 05 0 E S 7 0 6
C 05 0 E S 7 0 7
C 05 0 E S 7 0 8
C 05 0 E S 7 0 9
C 05 0 E S 7 0 10
C 05 0 E S 7 0 11
C 05 0 E S 7 0 12
C 05 0 E S 7 0 13
C 05 0 E S 7 0 14
C 05 0 E S 7 0 15
C 05 0 E S 7 0 16
C 05 0 E S 7 0 17
C 05 0 E S 7 0 18
C 05 0 E S 7 0 19
C 05 0 E S 7 0 20
C 05 0 E S 7 0 21
C 05 0 E S 7 0 22
C 05 0 E S 7 0 23
C 05 0 E S 7 0 24
C 05 0 E S 7 0 25
C 05 0 E S 7 0 26
C 05 0 E S 7 0 27
C 05 0 E S 7 0 28
C 05 0 E S 7 0 29
C 05 0 E S 7 0 30
C 05 0 E S 7 0 31
