#side phi station eta layer w/s chann
C 0 M1 1 1 0 77
C 0 M1 1 2 0 77
C 0 M1 1 3 0 77
C 0 M1 1 3 1 32
C 0 M1 1 1 1 32
C 0 M2 3 2 1 31
C 0 M2 3 1 1 31
C 0 M2 2 1 0 14
C 0 M2 2 2 0 14
C 0 M2 2 2 1 31
C 0 M2 2 1 1 31
C 0 M2 1 2 1 31
C 0 M2 1 1 1 31
C 0 M3 2 1 0 24
C 0 M3 2 2 0 24
C 0 M3 2 2 1 30
C 0 M3 2 1 1 30
