#side phi station eta layer w/s chann
A 1 M1 2 3 1 7
A 1 M1 2 3 1 7
A 1 M1 2 1 1 7
A 1 M1 2 1 1 7
A 1 M1 2 1 0 59
A 1 M1 2 2 0 60
A 1 M1 2 3 0 61
A 1 M2 2 2 1 4
A 1 M2 2 1 1 4
A 1 M2 3 1 0 23
A 1 M2 3 2 0 24
A 1 M2 3 2 1 4
A 1 M2 3 1 1 4
A 1 M2 4 2 1 4
A 1 M2 4 1 1 4
A 1 M3 3 1 0 31
A 1 M3 3 2 0 32
A 1 M3 3 2 0 32
A 1 M3 3 2 1 3
A 1 M3 3 2 1 3
A 1 M3 3 1 1 3
A 1 M3 4 2 0 1
A 1 M3 4 2 0 1
A 1 M3 4 2 1 4
