#side phi station eta layer w/s chann
A 0 M1 1 1 0 55
A 0 M1 1 2 0 54
A 0 M1 1 3 0 56
A 0 M1 1 1 1 27
A 0 M1 1 1 1 27
A 0 M1 1 3 1 27
A 0 M2 1 1 0 55
A 0 M2 1 2 0 55
A 0 M2 1 1 1 26
A 0 M2 1 2 1 27
A 0 M3 1 1 0 54
A 0 M3 1 2 0 55
A 0 M3 1 1 1 26
A 0 M3 1 2 1 27
