#side phi station eta layer w/s chann
A 0 M1 1 1 0 60
A 0 M1 1 2 0 59
A 0 M1 1 3 0 60
A 0 M1 1 3 0 61
A 0 M1 1 1 1 8
A 0 M1 1 3 1 9
A 0 M1 1 3 1 9
A 0 M1 1 3 1 8
A 0 M1 1 3 1 8
A 0 M2 1 1 0 61
A 0 M2 1 2 0 62
A 0 M2 1 1 1 8
A 0 M2 1 2 1 9
A 0 M2 1 2 1 8
A 0 M3 1 1 0 61
A 0 M3 1 2 0 61
A 0 M3 1 1 1 8
A 0 M3 1 2 1 9
A 0 M3 1 2 1 8
A 0 M3 1 2 1 8
