#side phi station eta layer w/s chann
A 1 M1 1 1 0 76
A 1 M1 1 2 0 77
A 1 M1 1 3 0 77
A 1 M1 1 3 1 9
A 1 M1 1 1 1 9
A 1 M2 1 2 1 10
A 1 M2 1 1 1 10
A 1 M2 2 1 0 14
A 1 M2 2 2 0 14
A 1 M2 2 2 1 10
A 1 M2 2 1 1 10
A 1 M2 3 2 1 10
A 1 M2 3 1 1 10
A 1 M3 2 1 0 23
A 1 M3 2 2 0 24
A 1 M3 2 2 1 11
A 1 M3 2 2 1 10
A 1 M3 2 1 1 10
