#side phi station eta layer w/s chann
C 23 M1 1 1 0 57
C 23 M1 1 2 0 57
C 23 M1 1 2 0 56
C 23 M1 1 3 0 59
C 23 M1 1 3 0 58
C 23 M1 1 3 0 57
C 23 M1 1 3 1 13
C 23 M1 1 3 1 12
C 23 M1 1 3 1 11
C 23 M1 1 1 1 14
C 23 M1 1 1 1 14
C 23 M1 1 1 1 13
C 23 M1 1 1 1 12
C 23 M1 1 1 1 12
C 23 M2 1 1 0 58
C 23 M2 1 2 0 59
C 23 M2 1 2 1 12
C 23 M2 1 1 1 13
C 23 M2 1 1 1 13
C 23 M3 1 1 0 58
C 23 M3 1 2 0 58
C 23 M3 1 2 1 12
C 23 M3 1 1 1 13
C 23 M3 1 1 1 12
