#side phi station eta layer w/s chann
A 1 M1 1 1 0 32
A 1 M1 1 2 0 32
A 1 M1 1 3 0 33
A 1 M1 1 3 1 31
A 1 M1 1 3 1 31
A 1 M1 1 3 1 30
A 1 M1 1 3 1 30
A 1 M1 1 1 1 30
A 1 M2 1 2 0 58
A 1 M2 1 1 0 57
A 1 M2 1 2 1 31
A 1 M2 1 1 1 30
A 1 M2 1 1 1 30
A 1 M2 2 2 1 31
A 1 M2 2 1 1 30
A 1 M2 2 1 1 30
A 1 M3 1 1 0 55
A 1 M3 1 1 0 55
A 1 M3 1 2 0 56
A 1 M3 1 2 1 30
A 1 M3 1 2 1 30
A 1 M3 1 1 1 30
A 1 M3 1 1 1 30
