#side phi station eta layer w/s chann
C 0 M1 3 3 1 31
C 0 M1 3 1 1 31
C 0 M1 3 1 0 18
C 0 M1 3 2 0 18
C 0 M1 3 3 0 18
C 0 M2 5 2 1 31
C 0 M2 5 1 1 22
C 0 M2 5 1 1 22
C 0 M2 5 1 1 31
C 0 M2 4 1 0 21
C 0 M2 4 1 0 19
C 0 M2 4 2 0 19
C 0 M2 4 2 1 31
C 0 M2 4 1 1 22
C 0 M2 4 1 1 22
C 0 M2 4 1 1 31
C 0 M2 3 2 1 31
C 0 M2 3 1 1 22
C 0 M2 3 1 1 22
C 0 M2 3 1 1 31
C 0 M3 4 1 0 26
C 0 M3 4 2 0 26
C 0 M3 4 2 1 31
C 0 M3 4 1 1 31
