#side phi station eta layer w/s chann
A 0 M1 1 1 0 3
A 0 M1 1 2 0 4
A 0 M1 1 3 0 4
A 0 M1 1 1 1 26
A 0 M1 1 1 1 26
A 0 M1 1 1 1 25
A 0 M1 1 1 1 25
A 0 M1 1 3 1 26
A 0 M1 1 3 1 26
A 0 M2 1 1 0 14
A 0 M2 1 2 0 15
A 0 M2 1 1 1 25
A 0 M2 1 2 1 25
A 0 M2 2 1 1 25
A 0 M2 2 2 1 25
A 0 M3 1 1 0 11
A 0 M3 1 2 0 12
A 0 M3 1 1 1 25
A 0 M3 1 2 1 26
A 0 M3 1 2 1 25
