#side phi station eta layer w/s chann
C 0 M1 1 1 0 88
C 0 M1 1 1 0 87
C 0 M1 1 2 0 88
C 0 M1 1 3 0 88
C 0 M1 1 3 1 7
C 0 M1 1 1 1 9
C 0 M1 1 1 1 8
C 0 M1 1 1 1 7
C 0 M2 3 2 1 11
C 0 M2 3 1 1 11
C 0 M2 2 1 0 29
C 0 M2 2 2 0 29
C 0 M2 2 2 1 11
C 0 M2 2 1 1 11
C 0 M2 2 1 1 13
C 0 M2 1 1 1 13
C 0 M2 1 2 1 11
C 0 M2 1 1 1 11
C 0 M3 2 1 0 39
C 0 M3 2 2 0 39
C 0 M3 2 2 0 40
C 0 M3 2 2 1 12
C 0 M3 2 1 1 12
C 0 M3 2 1 1 12
