#side phi station eta layer w/s chann
A 0 M1 1 1 0 72
A 0 M1 1 2 0 71
A 0 M1 1 3 0 73
A 0 M1 1 1 1 9
A 0 M1 1 3 1 10
A 0 M1 1 3 1 9
A 0 M1 1 3 1 9
A 0 M2 1 1 0 83
A 0 M2 1 2 0 84
A 0 M2 1 1 0 114
A 0 M2 1 1 1 9
A 0 M2 1 1 1 29
A 0 M2 1 1 1 29
A 0 M2 1 1 1 30
A 0 M2 1 1 1 28
A 0 M2 1 2 1 10
A 0 M2 1 2 1 10
A 0 M2 1 2 1 9
A 0 M2 1 2 1 9
A 0 M3 1 1 0 84
A 0 M3 1 2 0 84
A 0 M3 1 2 0 83
A 0 M3 1 1 1 9
A 0 M3 1 2 1 10
A 0 M3 1 2 1 9
