#side phi station eta layer w/s chann
A 1 M1 3 3 1 29
A 1 M1 3 1 1 28
A 1 M1 3 1 0 10
A 1 M1 3 2 0 10
A 1 M1 3 3 0 11
A 1 M2 3 2 1 28
A 1 M2 3 1 1 27
A 1 M2 4 1 0 8
A 1 M2 4 2 0 9
A 1 M2 4 2 1 28
A 1 M2 4 1 1 27
A 1 M2 5 2 1 28
A 1 M2 5 1 1 27
A 1 M3 4 1 0 15
A 1 M3 4 2 0 16
A 1 M3 4 2 1 28
A 1 M3 4 1 1 27
