#side phi station eta layer w/s chann
C 0 M1 4 2 0 23
C 0 M1 2 3 1 28
C 0 M1 2 3 1 28
C 0 M1 2 1 1 29
C 0 M1 2 1 0 49
C 0 M1 2 2 0 50
C 0 M1 2 3 0 51
C 0 M2 4 2 1 28
C 0 M2 4 1 1 28
C 0 M2 3 1 0 4
C 0 M2 3 2 0 4
C 0 M2 3 2 1 28
C 0 M2 3 1 1 28
C 0 M2 2 2 1 28
C 0 M2 2 1 1 28
C 0 M3 3 1 0 10
C 0 M3 3 2 0 11
C 0 M3 3 2 1 28
C 0 M3 3 2 1 27
C 0 M3 3 1 1 28
