#side phi station eta layer w/s chann
A 1 M1 1 1 0 90
A 1 M1 1 2 0 90
A 1 M1 1 3 0 90
A 1 M1 1 3 1 16
A 1 M1 1 1 1 15
A 1 M2 1 2 1 15
A 1 M2 1 1 1 14
A 1 M2 2 1 0 32
A 1 M2 2 2 0 32
A 1 M2 2 2 1 15
A 1 M2 2 1 1 14
A 1 M2 3 2 1 15
A 1 M2 3 1 1 14
A 1 M3 2 1 0 41
A 1 M3 2 2 0 42
A 1 M3 2 2 1 14
A 1 M3 2 2 1 15
A 1 M3 2 1 1 14
