#side phi station eta layer w/s chann
C 0 M1 1 1 0 21
C 0 M1 1 2 0 21
C 0 M1 1 3 0 22
C 0 M1 1 3 1 4
C 0 M1 1 1 1 5
C 0 M1 1 1 1 3
C 0 M2 2 2 1 6
C 0 M2 2 1 1 6
C 0 M2 1 1 0 29
C 0 M2 1 2 0 30
C 0 M2 1 2 1 6
C 0 M2 1 1 1 6
C 0 M3 1 1 0 23
C 0 M3 1 2 0 23
C 0 M3 1 2 1 6
C 0 M3 1 1 1 7
C 0 M3 1 1 1 6
