#side phi station eta layer w/s chann
A 1 M1 1 1 0 55
A 1 M1 1 2 0 55
A 1 M1 1 3 0 55
A 1 M1 1 3 1 8
A 1 M1 1 3 1 8
A 1 M1 1 3 1 9
A 1 M1 1 3 1 9
A 1 M1 1 1 1 8
A 1 M2 1 1 0 79
A 1 M2 1 2 0 79
A 1 M2 1 2 1 4
A 1 M2 1 2 1 5
A 1 M2 1 2 1 5
A 1 M2 1 1 1 4
A 1 M2 2 2 1 4
A 1 M2 2 2 1 5
A 1 M2 2 2 1 5
A 1 M2 2 1 1 4
A 1 M3 1 1 0 73
A 1 M3 1 2 0 73
A 1 M3 1 2 1 3
A 1 M3 1 1 1 3
