#side phi station eta layer w/s chann
A 0 M1 4 1 1 30
A 0 M1 4 3 1 31
A 0 M1 4 1 0 13
A 0 M1 4 2 0 13
A 0 M1 4 3 0 14
A 0 M2 4 1 1 30
A 0 M2 4 2 1 31
A 0 M2 5 1 0 9
A 0 M2 5 2 0 10
A 0 M2 5 1 1 30
A 0 M2 5 2 1 31
A 0 M3 5 1 0 15
A 0 M3 5 1 0 13
A 0 M3 5 2 0 16
A 0 M3 5 1 1 30
A 0 M3 5 1 1 30
A 0 M3 5 1 1 29
A 0 M3 5 2 1 31
