#side phi station eta layer w/s chann
A 0 M1 2 1 0 16
A 0 M1 2 2 0 17
A 0 M1 2 3 0 17
A 0 M1 2 1 1 21
A 0 M1 2 3 1 22
A 0 M1 2 3 1 22
A 0 M2 1 1 1 19
A 0 M2 1 1 1 19
A 0 M2 1 2 1 20
A 0 M2 2 1 0 57
A 0 M2 2 2 0 58
A 0 M2 2 1 1 19
A 0 M2 2 1 1 19
A 0 M2 2 2 1 20
A 0 M2 3 1 1 19
A 0 M2 3 1 1 19
A 0 M2 3 2 1 20
A 0 M3 2 1 0 66
A 0 M3 2 2 0 67
A 0 M3 2 1 1 19
A 0 M3 2 2 1 20
A 0 M3 2 2 1 19
A 0 M3 2 2 1 19
