#side phi station eta layer w/s chann
A 0 M1 1 1 0 87
A 0 M1 1 2 0 86
A 0 M1 1 3 0 88
A 0 M1 1 1 1 20
A 0 M1 1 1 1 20
A 0 M1 1 1 1 19
A 0 M1 1 3 1 20
A 0 M1 1 3 1 20
A 0 M2 1 1 0 93
A 0 M2 1 2 0 93
A 0 M2 1 1 1 19
A 0 M2 1 2 1 20
A 0 M3 1 1 0 89
A 0 M3 1 2 0 90
A 0 M3 1 1 0 97
A 0 M3 1 1 0 96
A 0 M3 1 1 1 20
A 0 M3 1 1 1 19
A 0 M3 1 1 1 18
A 0 M3 1 2 1 20
