#side phi station eta layer w/s chann
C 1 M1 1 1 0 97
C 1 M1 1 2 0 97
C 1 M1 1 3 0 98
C 1 M1 1 3 1 21
C 1 M1 1 1 1 22
C 1 M1 1 1 1 21
C 1 M2 1 1 0 119
C 1 M2 1 2 0 120
C 1 M2 1 2 1 21
C 1 M2 1 1 1 22
C 1 M2 1 1 1 21
C 1 M3 1 1 0 120
C 1 M3 1 1 0 119
C 1 M3 1 1 0 118
C 1 M3 1 1 0 118
C 1 M3 1 2 0 120
C 1 M3 1 2 1 21
C 1 M3 1 1 1 23
C 1 M3 1 1 1 23
C 1 M3 1 1 1 22
C 1 M3 1 1 1 21
C 1 M3 1 1 1 20
C 1 M3 1 1 1 20
