#side phi station eta layer w/s chann
C 1 M1 1 1 0 61
C 1 M1 1 2 0 60
C 1 M1 1 3 0 62
C 1 M1 1 3 1 25
C 1 M1 1 3 1 25
C 1 M1 1 1 1 26
C 1 M2 1 1 0 53
C 1 M2 1 2 0 54
C 1 M2 1 2 0 53
C 1 M2 1 2 1 25
C 1 M2 1 1 1 26
C 1 M2 1 1 1 26
C 1 M2 1 1 1 25
C 1 M3 1 1 0 50
C 1 M3 1 1 0 49
C 1 M3 1 2 0 51
C 1 M3 1 2 0 50
C 1 M3 1 2 1 26
C 1 M3 1 2 1 25
C 1 M3 1 1 1 26
C 1 M3 1 1 1 25
C 1 M3 1 1 1 27
