#side phi station eta layer w/s chann
A 0 M1 1 1 0 104
A 0 M1 1 2 0 103
A 0 M1 1 3 0 104
A 0 M1 1 1 1 3
A 0 M1 1 3 1 3
A 0 M2 1 1 0 122
A 0 M2 1 1 0 122
A 0 M2 1 2 0 122
A 0 M2 1 1 1 3
A 0 M2 1 1 1 3
A 0 M2 1 2 1 3
A 0 M3 1 1 0 120
A 0 M3 1 2 0 120
A 0 M3 1 1 1 3
A 0 M3 1 1 1 3
A 0 M3 1 2 1 3
