#side phi station eta layer w/s chann
A 1 M1 1 1 0 43
A 1 M1 1 2 0 42
A 1 M1 1 3 0 43
A 1 M1 1 1 1 10
A 1 M1 1 1 1 10
A 1 M1 1 3 1 11
A 1 M1 1 3 1 11
A 1 M2 1 1 0 31
A 1 M2 1 2 0 31
A 1 M2 1 1 1 10
A 1 M2 1 1 1 10
A 1 M2 1 2 1 10
A 1 M3 1 1 0 29
A 1 M3 1 1 0 30
A 1 M3 1 2 0 30
A 1 M3 1 1 1 10
A 1 M3 1 2 1 10
A 1 M3 1 2 1 10
