#side phi station eta layer w/s chann
A 0 M1 1 1 0 40
A 0 M1 1 2 0 39
A 0 M1 1 3 0 41
A 0 M1 1 1 1 7
A 0 M1 1 3 1 8
A 0 M1 1 3 1 8
A 0 M1 1 3 1 7
A 0 M2 1 1 0 25
A 0 M2 1 2 0 25
A 0 M2 1 1 1 7
A 0 M2 1 2 1 8
A 0 M2 1 2 1 7
A 0 M2 1 2 1 7
A 0 M3 1 1 0 22
A 0 M3 1 2 0 22
A 0 M3 1 1 1 7
A 0 M3 1 1 1 7
A 0 M3 1 2 1 8
