#side phi station eta layer w/s chann
A 0 M1 1 1 0 76
A 0 M1 1 2 0 76
A 0 M1 1 3 0 76
A 0 M1 1 1 1 18
A 0 M1 1 1 1 19
A 0 M1 1 1 1 19
A 0 M1 1 3 1 19
A 0 M2 1 1 1 20
A 0 M2 1 2 1 21
A 0 M2 2 1 0 14
A 0 M2 2 2 0 15
A 0 M2 2 1 1 20
A 0 M2 2 2 1 21
A 0 M2 3 1 1 20
A 0 M2 3 2 1 21
A 0 M3 2 1 0 25
A 0 M3 2 2 0 25
A 0 M3 2 1 1 21
A 0 M3 2 1 1 21
A 0 M3 2 2 1 21
A 0 M3 2 2 1 22
