#side phi station eta layer w/s chann
C 0 M1 3 3 1 7
C 0 M1 3 1 1 8
C 0 M1 3 1 0 7
C 0 M1 3 2 0 8
C 0 M1 3 3 0 8
C 0 M2 4 2 1 9
C 0 M2 4 1 1 9
C 0 M2 3 1 0 24
C 0 M2 3 2 0 25
C 0 M2 3 2 1 9
C 0 M2 3 1 1 9
C 0 M2 2 2 1 9
C 0 M2 2 1 1 9
C 0 M3 3 1 0 29
C 0 M3 3 2 0 30
C 0 M3 3 2 1 9
C 0 M3 3 1 1 10
