#side phi station eta layer w/s chann
A 1 M1 1 1 0 48
A 1 M1 1 1 0 47
A 1 M1 1 2 0 48
A 1 M1 1 3 0 48
A 1 M1 1 3 1 7
A 1 M1 1 1 1 6
A 1 M1 1 1 1 7
A 1 M2 1 1 0 81
A 1 M2 1 1 0 82
A 1 M2 1 1 0 82
A 1 M2 1 2 0 82
A 1 M2 1 2 1 6
A 1 M2 1 1 1 6
A 1 M2 2 2 1 6
A 1 M2 2 1 1 6
A 1 M3 1 1 0 79
A 1 M3 1 2 0 79
A 1 M3 1 2 0 79
A 1 M3 1 2 1 6
A 1 M3 1 2 1 6
A 1 M3 1 1 1 7
A 1 M3 1 1 1 5
A 1 M3 1 1 1 6
