#side phi station eta layer w/s chann
C 0 M1 1 1 0 23
C 0 M1 1 2 0 23
C 0 M1 1 3 0 24
C 0 M1 1 3 1 29
C 0 M1 1 3 1 28
C 0 M1 1 1 1 29
C 0 M2 2 2 1 28
C 0 M2 2 1 1 29
C 0 M2 2 1 1 29
C 0 M2 1 1 0 37
C 0 M2 1 2 0 37
C 0 M2 1 2 1 28
C 0 M2 1 1 1 29
C 0 M2 1 1 1 29
C 0 M3 1 1 0 32
C 0 M3 1 2 0 32
C 0 M3 1 2 1 28
C 0 M3 1 1 1 29
C 0 M3 1 1 1 28
