#side phi station eta layer w/s chann
C 1 M1 1 1 0 54
C 1 M1 1 2 0 55
C 1 M1 1 2 0 54
C 1 M1 1 3 0 55
C 1 M1 1 1 1 16
C 1 M1 1 1 1 16
C 1 M1 1 3 1 15
C 1 M2 2 1 1 12
C 1 M2 2 1 1 12
C 1 M2 2 1 1 13
C 1 M2 2 2 1 12
C 1 M2 1 1 0 79
C 1 M2 1 2 0 80
C 1 M2 1 1 1 12
C 1 M2 1 1 1 12
C 1 M2 1 1 1 13
C 1 M2 1 2 1 12
C 1 M3 1 1 0 73
C 1 M3 1 2 0 74
C 1 M3 1 1 1 12
C 1 M3 1 2 1 11
