#side phi station eta layer w/s chann
C 0 M1 1 1 0 70
C 0 M1 1 2 0 69
C 0 M1 1 3 0 71
C 0 M1 1 3 1 30
C 0 M1 1 3 1 29
C 0 M1 1 3 1 29
C 0 M1 1 3 1 31
C 0 M1 1 3 1 31
C 0 M1 1 1 1 30
C 0 M2 1 1 0 78
C 0 M2 1 2 0 78
C 0 M2 1 2 1 30
C 0 M2 1 1 1 30
C 0 M3 1 1 0 78
C 0 M3 1 2 0 78
C 0 M3 1 2 1 30
C 0 M3 1 2 1 30
C 0 M3 1 1 1 30
