#side phi station eta layer w/s chann
C 0 M1 1 1 0 92
C 0 M1 1 2 0 92
C 0 M1 1 3 0 93
C 0 M1 1 3 1 8
C 0 M1 1 1 1 10
C 0 M1 1 1 1 9
C 0 M1 1 1 1 8
C 0 M2 1 1 0 113
C 0 M2 1 2 0 114
C 0 M2 1 2 1 8
C 0 M2 1 1 1 8
C 0 M3 1 1 0 114
C 0 M3 1 2 0 114
C 0 M3 1 2 0 115
C 0 M3 1 2 1 8
C 0 M3 1 2 1 8
C 0 M3 1 1 1 8
