#side phi station eta layer w/s chann
C 0 M1 1 1 0 44
C 0 M1 1 2 0 43
C 0 M1 1 3 0 45
C 0 M1 1 3 1 28
C 0 M1 1 3 1 28
C 0 M1 1 3 1 27
C 0 M1 1 1 1 28
C 0 M2 1 2 0 59
C 0 M2 1 1 0 30
C 0 M2 1 2 0 30
C 0 M2 1 2 0 30
C 0 M2 1 2 1 16
C 0 M2 1 2 1 28
C 0 M2 1 2 1 28
C 0 M2 1 1 1 29
C 0 M2 1 1 1 29
C 0 M2 1 1 1 28
C 0 M3 1 1 0 28
C 0 M3 1 2 0 28
C 0 M3 1 2 1 28
C 0 M3 1 1 1 28
