#side phi station eta layer w/s chann
A 0 M1 1 1 0 71
A 0 M1 1 2 0 71
A 0 M1 1 3 0 71
A 0 M1 1 1 1 13
A 0 M1 1 3 1 13
A 0 M2 1 1 1 12
A 0 M2 1 2 1 12
A 0 M2 2 1 0 4
A 0 M2 2 2 0 4
A 0 M2 2 1 1 12
A 0 M2 2 2 1 12
A 0 M2 3 1 1 12
A 0 M2 3 2 1 12
A 0 M3 2 1 0 13
A 0 M3 2 2 0 14
A 0 M3 2 1 1 11
A 0 M3 2 2 1 12
A 0 M3 2 2 1 11
