#side phi station eta layer w/s chann
A 0 M1 1 1 0 37
A 0 M1 1 2 0 37
A 0 M1 1 3 0 37
A 0 M1 1 1 1 9
A 0 M1 1 3 1 9
A 0 M2 1 1 0 64
A 0 M2 1 2 0 64
A 0 M2 1 1 1 9
A 0 M2 1 2 1 10
A 0 M2 2 1 1 9
A 0 M2 2 2 1 10
A 0 M3 1 1 0 61
A 0 M3 1 2 0 61
A 0 M3 1 1 1 9
A 0 M3 1 2 1 10
