#side phi station eta layer w/s chann
C 0 M1 1 1 0 29
C 0 M1 1 2 0 29
C 0 M1 1 2 0 32
C 0 M1 1 3 0 29
C 0 M1 1 1 0 33
C 0 M1 1 2 0 33
C 0 M1 1 3 1 5
C 0 M1 1 1 1 6
C 0 M1 1 1 1 14
C 0 M1 1 1 1 13
C 0 M1 1 1 1 13
C 0 M2 2 2 1 5
C 0 M2 2 1 1 6
C 0 M2 1 1 0 45
C 0 M2 1 2 0 45
C 0 M2 1 2 1 5
C 0 M2 1 1 1 6
C 0 M3 1 1 0 39
C 0 M3 1 2 0 40
C 0 M3 1 2 1 6
C 0 M3 1 2 1 5
C 0 M3 1 2 1 5
C 0 M3 1 1 1 6
